{
	"extName": {
		"message": "CardBook",
		"description": "Name of the extension - do NOT translate"
	},
	
	"extDesc": {
		"message": "vCard通讯录",
		"description": "Description of the extension - do NOT translate"
	},
	
	"browserActionTitle": {
		"message": "CardBook",
		"description": "切换到 CardBook 标签页"
	}
}
