<?xml version="1.0" encoding="UTF-8" standalone="no"?>
<!-- Created with Inkscape (http://www.inkscape.org/) -->

<svg
   xmlns:dc="http://purl.org/dc/elements/1.1/"
   xmlns:cc="http://creativecommons.org/ns#"
   xmlns:rdf="http://www.w3.org/1999/02/22-rdf-syntax-ns#"
   xmlns:svg="http://www.w3.org/2000/svg"
   xmlns="http://www.w3.org/2000/svg"
   xmlns:sodipodi="http://sodipodi.sourceforge.net/DTD/sodipodi-0.dtd"
   xmlns:inkscape="http://www.inkscape.org/namespaces/inkscape"
   width="12"
   height="12"
   id="svg2"
   version="1.1"
   inkscape:version="0.91 r13725"
   sodipodi:docname="abcard.svg">
  <metadata
     id="metadata10">
    <rdf:RDF>
      <cc:Work
         rdf:about="">
        <dc:format>image/svg+xml</dc:format>
        <dc:type
           rdf:resource="http://purl.org/dc/dcmitype/StillImage" />
        <dc:title></dc:title>
      </cc:Work>
    </rdf:RDF>
  </metadata>
  <defs
     id="defs8" />
  <sodipodi:namedview
     pagecolor="#ffffff"
     bordercolor="#666666"
     borderopacity="1"
     objecttolerance="10"
     gridtolerance="10"
     guidetolerance="10"
     inkscape:pageopacity="0"
     inkscape:pageshadow="2"
     inkscape:window-width="1131"
     inkscape:window-height="750"
     id="namedview6"
     showgrid="true"
     fit-margin-top="0"
     fit-margin-bottom="0"
     fit-margin-left="1"
     fit-margin-right="1"
     inkscape:zoom="40.5"
     inkscape:cx="9.7373134"
     inkscape:cy="7.2231279"
     inkscape:window-x="0"
     inkscape:window-y="0"
     inkscape:window-maximized="1"
     inkscape:current-layer="svg2"
     height="13px"
     showborder="true"
     inkscape:showpageshadow="true"
     showguides="false">
    <inkscape:grid
       type="xygrid"
       id="grid4159"
       originx="1.9658714"
       originy="2.0446184" />
  </sodipodi:namedview>
  <path
     d="M 4.1766659,6.2985996 C 1.4023456,4.43322 2.6873378,0 6.0004159,0 9.313495,0 10.598486,4.43322 7.8241659,6.2985996 10.216751,7.1097306 10.999956,9.408601 11,12 L 1,12 C 1.0001551,9.408375 1.7837497,7.1094316 4.1766659,6.2985996 Z"
     style="fill:context-fill;fill-opacity:0.9"
     id="path4"
     inkscape:connector-curvature="0"
     sodipodi:nodetypes="cczczc" />
</svg>
