{
	"extName": {
		"message": "CardBook",
		"description": "Name of the extension - do NOT translate"
	},
	"extDesc": {
		"message": "Vcard adresár",
		"description": "Description of the extension - do NOT translate"
	},
	"browserActionTitle": {
		"message": "CardBook",
		"description": "Prepnúť na kartu CardBook"
	}
}
