{
	"extName": {
		"message": "Kontakter (CardBook)",
		"description": "Name of the extension - do NOT translate"
	},
	
	"extDesc": {
		"message": "vCard Adressbok",
		"description": "Description of the extension - do NOT translate"
	},
	
	"browserActionTitle": {
		"message": "CardBook",
		"description": "Växla till CardBook fliken"
	}
}
