{
	"extName": {
		"message": "Névjegyzék (CardBook)",
		"description": "Name of the extension - do NOT translate"
	},
	
	"extDesc": {
		"message": "vCard névjegyzék",
		"description": "Description of the extension - do NOT translate"
	},
	
	"browserActionTitle": {
		"message": "Névjegyzék",
		"description": "A névjegyzék megjelenítése"
	}
}
